<svg width="24" height="24" viewBox="0 0 24 24" fill="none" xmlns="http://www.w3.org/2000/svg">
<path d="M12.0001 2.24967C6.62403 2.24967 2.25012 6.62358 2.25012 11.9997C2.25012 17.3758 6.62403 21.7497 12.0001 21.7497C17.3762 21.7497 21.7501 17.3758 21.7501 11.9997C21.7501 6.62358 17.3762 2.24967 12.0001 2.24967ZM17.0743 8.73201L10.7743 16.232C10.7052 16.3143 10.6192 16.3808 10.5222 16.427C10.4251 16.4732 10.3193 16.498 10.2118 16.4997H10.1992C10.0941 16.4996 9.99012 16.4775 9.8941 16.4347C9.79809 16.3919 9.71214 16.3294 9.64184 16.2512L6.94184 13.2512C6.87327 13.1785 6.81993 13.0928 6.78495 12.9992C6.74998 12.9055 6.73407 12.8058 6.73817 12.706C6.74227 12.6061 6.76629 12.5081 6.80882 12.4176C6.85136 12.3271 6.91154 12.2461 6.98584 12.1792C7.06014 12.1124 7.14706 12.061 7.24148 12.0282C7.33591 11.9954 7.43593 11.9819 7.53568 11.9883C7.63543 11.9947 7.73289 12.021 7.82234 12.0656C7.91178 12.1102 7.9914 12.1723 8.05653 12.2481L10.1795 14.6069L15.9259 7.76733C16.0548 7.6183 16.2372 7.52598 16.4336 7.51033C16.63 7.49468 16.8247 7.55695 16.9755 7.68369C17.1264 7.81042 17.2214 7.99143 17.2398 8.1876C17.2583 8.38376 17.1989 8.57933 17.0743 8.73201V8.73201Z" fill="#38A169"/>
</svg>
