<svg width="101" height="101" viewBox="0 0 101 101" fill="none" xmlns="http://www.w3.org/2000/svg">
<path d="M91.5308 69.4381H63.1246C62.2875 69.4381 61.4847 69.7706 60.8928 70.3626C60.3009 70.9545 59.9683 71.7573 59.9683 72.5944C59.9683 75.1056 58.9707 77.514 57.195 79.2898C55.4193 81.0655 53.0109 82.0631 50.4996 82.0631C47.9883 82.0631 45.5799 81.0655 43.8042 79.2898C42.0284 77.514 41.0308 75.1056 41.0308 72.5944C41.0308 71.7573 40.6983 70.9545 40.1064 70.3626C39.5145 69.7706 38.7117 69.4381 37.8746 69.4381H9.46836C8.63127 69.4381 7.82846 69.7706 7.23655 70.3626C6.64464 70.9545 6.31211 71.7573 6.31211 72.5944V85.2194C6.31576 88.5666 7.64707 91.7757 10.0139 94.1425C12.3808 96.5094 15.5899 97.8407 18.9371 97.8444H82.0621C85.4093 97.8407 88.6184 96.5094 90.9853 94.1425C93.3521 91.7757 94.6834 88.5666 94.6871 85.2194V72.5944C94.6871 71.7573 94.3545 70.9545 93.7626 70.3626C93.1707 69.7706 92.3679 69.4381 91.5308 69.4381Z" fill="white"/>
<path d="M94.5805 37.0641L88.2976 13.5047C87.047 7.02252 82.3659 3.15809 75.7496 3.15809H25.2496C21.9355 3.15809 19.1344 4.08327 16.9447 5.90797C14.7551 7.73268 13.3466 10.2597 12.7035 13.4948L6.41863 37.0641C6.34772 37.3292 6.31191 37.6024 6.31211 37.8768V47.3456C6.31211 54.3071 11.9756 63.1268 18.9371 63.1268H82.0621C89.0236 63.1268 94.6871 54.3071 94.6871 47.3456V37.8768C94.6873 37.6024 94.6515 37.3292 94.5805 37.0641V37.0641ZM86.9089 34.7206H63.1246C62.2924 34.7164 61.4925 35.0427 60.9007 35.6278C60.3089 36.213 59.9736 37.0091 59.9683 37.8413C59.9683 40.3526 58.9707 42.761 57.195 44.5367C55.4193 46.3125 53.0109 47.3101 50.4996 47.3101C47.9883 47.3101 45.5799 46.3125 43.8042 44.5367C42.0284 42.761 41.0308 40.3526 41.0308 37.8413C41.0256 37.0091 40.6903 36.213 40.0985 35.6278C39.5067 35.0427 38.7068 34.7164 37.8746 34.7206H14.0903C14.0298 34.7205 13.97 34.7066 13.9158 34.6798C13.8615 34.6529 13.8141 34.614 13.7773 34.5659C13.7405 34.5179 13.7152 34.462 13.7035 34.4026C13.6917 34.3432 13.6938 34.2819 13.7096 34.2235L18.8799 14.7968C19.5802 11.1651 21.6041 9.47059 25.2496 9.47059H75.7496C79.4167 9.47059 81.4387 11.1533 82.1114 14.7672L87.2896 34.2235C87.3054 34.2819 87.3074 34.3432 87.2957 34.4026C87.2839 34.462 87.2587 34.5179 87.2219 34.5659C87.1851 34.614 87.1377 34.6529 87.0834 34.6798C87.0291 34.7066 86.9694 34.7205 86.9089 34.7206Z" fill="white"/>
</svg>
